// Dubatone config file

// Interpolation, Modulation Frequency, Modulation Morph, Basis, Scale
66,65,63,56,55

// Oscillators

// Frequency, Amplitude, Morph, Modulation Amplitude
// LFO wave, Interpolation Off, LFO type, Mute OSC

// Sine
57,42,43,58
67,76,68,77
// Triangle
59,50,51,60
69,78,70,79
// Noise
61,52,53,62
71,80,72,81