// Loopstation config file

// Play, Stop
// Record, Reset
// Previous, Next

45,46
44,49
47,48

// Track parameters
// Volume, Pan, Mute, Clear

42,57,67,76
43,58,68,77
50,59,69,78
51,60,70,79
52,61,71,80
53,62,72,81
54,63,73,82
55,65,74,83
56,66,75,84