//Order should be 'path', 'id', 'volume'

./sounds/Kick1.wav,60,1.0
./sounds/CLAP.wav,61,1.0
./sounds/HH1.wav,62,0.25
./sounds/Snare1.wav,63,1.0
./sounds/stereo.wav,64,0.25
./sounds/Ride1.wav,65,0.25
